<svg width="48" height="112" viewBox="0 0 48 112" fill="none" xmlns="http://www.w3.org/2000/svg">
<path d="M0 0H48V44.8L38 72.8V112H0V0Z" fill="url(#paint0_linear)"/>
<defs>
<linearGradient id="paint0_linear" x1="55.5" y1="-12.4444" x2="-30.6908" y2="105.353" gradientUnits="userSpaceOnUse">
<stop stop-color="#5C89FD"/>
<stop offset="1" stop-color="#3369F4"/>
</linearGradient>
</defs>
</svg>
