<svg width="48" height="112" viewBox="0 0 48 112" fill="none" xmlns="http://www.w3.org/2000/svg">
<path d="M0 0H48V44.8L38 72.8V112H0V0Z" fill="url(#paint0_linear)"/>
<defs>
<linearGradient id="paint0_linear" x1="56.5" y1="-18.0444" x2="-34.8081" y2="109.536" gradientUnits="userSpaceOnUse">
<stop stop-color="#D58FFF"/>
<stop offset="1" stop-color="#C36FF5"/>
</linearGradient>
</defs>
</svg>
