<svg width="160" height="160" viewBox="0 0 160 160" fill="none" xmlns="http://www.w3.org/2000/svg">
<rect width="160" height="160" fill="white"/>
<path d="M45 82.5C52.4961 82.5 58.5714 76.6245 58.5714 69.375C58.5714 62.1255 52.4961 56.25 45 56.25C37.5039 56.25 31.4286 62.1255 31.4286 69.375C31.4286 76.6245 37.5039 82.5 45 82.5ZM54.5 85.7812V85.7812C54.3475 85.7812 54.2713 85.7812 54.2432 85.7814C53.1728 85.789 52.8116 85.8483 51.7949 86.1834C51.7682 86.1922 51.5389 86.2696 51.0803 86.4243C49.1748 87.0673 47.1285 87.4219 45 87.4219C42.8701 87.4219 40.8289 87.0669 38.9202 86.423C38.4617 86.2684 38.2324 86.191 38.2031 86.1814C37.1948 85.8499 36.8278 85.7897 35.7664 85.7815C35.7356 85.7812 35.657 85.7812 35.5 85.7812V85.7812C27.6328 85.7812 21.25 91.9541 21.25 99.5625V103.828C21.25 106.545 23.5296 108.75 26.3393 108.75H63.6607C66.4704 108.75 68.75 106.545 68.75 103.828V99.5625C68.75 91.9541 62.3672 85.7812 54.5 85.7812Z" fill="url(#paint0_radial_31646_33711)" fill-opacity="0.7"/>
<path d="M115 82.5C122.496 82.5 128.571 76.6245 128.571 69.375C128.571 62.1255 122.496 56.25 115 56.25C107.504 56.25 101.429 62.1255 101.429 69.375C101.429 76.6245 107.504 82.5 115 82.5ZM124.5 85.7812V85.7812C124.348 85.7812 124.271 85.7812 124.243 85.7814C123.173 85.789 122.812 85.8483 121.795 86.1834C121.768 86.1922 121.539 86.2696 121.08 86.4243C119.175 87.0673 117.128 87.4219 115 87.4219C112.87 87.4219 110.829 87.0669 108.92 86.423C108.462 86.2684 108.232 86.191 108.203 86.1814C107.195 85.8499 106.828 85.7897 105.766 85.7815C105.736 85.7812 105.657 85.7812 105.5 85.7812V85.7812C97.6328 85.7812 91.25 91.9541 91.25 99.5625V103.828C91.25 106.545 93.5296 108.75 96.3393 108.75H133.661C136.47 108.75 138.75 106.545 138.75 103.828V99.5625C138.75 91.9541 132.367 85.7812 124.5 85.7812Z" fill="url(#paint1_radial_31646_33711)" fill-opacity="0.7"/>
<path d="M80 76.875C91.8359 76.875 101.429 67.5022 101.429 55.9375C101.429 44.3728 91.8359 35 80 35C68.1641 35 58.5714 44.3728 58.5714 55.9375C58.5714 67.5022 68.1641 76.875 80 76.875ZM95 82.1094V82.1094C94.0129 82.1094 93.5193 82.1094 93.1059 82.1525C92.6935 82.1954 92.5553 82.2183 92.1512 82.3108C91.746 82.4035 91.032 82.647 89.6041 83.134C86.5943 84.1605 83.3621 84.7266 80 84.7266C76.6357 84.7266 73.4114 84.1598 70.3967 83.1319C68.9691 82.6452 68.2553 82.4018 67.8458 82.3087C67.4505 82.2188 67.3119 82.1958 66.9088 82.1533C66.4911 82.1094 65.9941 82.1094 65 82.1094V82.1094C52.5781 82.1094 42.5 91.9565 42.5 104.094V110.898C42.5 115.233 46.0993 118.75 50.5357 118.75H109.464C113.901 118.75 117.5 115.233 117.5 110.898V104.094C117.5 91.9565 107.422 82.1094 95 82.1094Z" fill="url(#paint2_radial_31646_33711)"/>
<circle cx="120" cy="40" r="18.5" fill="url(#paint3_linear_31646_33711)" stroke="white" stroke-width="3"/>
<path fill-rule="evenodd" clip-rule="evenodd" d="M120 28.125C121.036 28.125 121.875 28.9645 121.875 30V31.25C121.875 32.2855 121.036 33.125 120 33.125C118.964 33.125 118.125 32.2855 118.125 31.25V30C118.125 28.9645 118.964 28.125 120 28.125ZM120 35.625C121.036 35.625 121.875 36.4645 121.875 37.5V50C121.875 51.0355 121.036 51.875 120 51.875C118.964 51.875 118.125 51.0355 118.125 50V37.5C118.125 36.4645 118.964 35.625 120 35.625Z" fill="white"/>
<defs>
<radialGradient id="paint0_radial_31646_33711" cx="0" cy="0" r="1" gradientUnits="userSpaceOnUse" gradientTransform="translate(45 56.4233) rotate(90) scale(60.1125 37.325)">
<stop stop-color="#5BD8FF" stop-opacity="0.6"/>
<stop offset="1" stop-color="#248AFF"/>
</radialGradient>
<radialGradient id="paint1_radial_31646_33711" cx="0" cy="0" r="1" gradientUnits="userSpaceOnUse" gradientTransform="translate(115 56.4233) rotate(90) scale(60.1125 37.325)">
<stop stop-color="#5BD8FF" stop-opacity="0.6"/>
<stop offset="1" stop-color="#248AFF"/>
</radialGradient>
<radialGradient id="paint2_radial_31646_33711" cx="0" cy="0" r="1" gradientUnits="userSpaceOnUse" gradientTransform="translate(80 35.2764) rotate(90) scale(95.8938 58.9342)">
<stop stop-color="#FFBE5B" stop-opacity="0.6"/>
<stop offset="1" stop-color="#FFB524"/>
</radialGradient>
<linearGradient id="paint3_linear_31646_33711" x1="120" y1="20" x2="120" y2="60" gradientUnits="userSpaceOnUse">
<stop stop-color="#2D8DFF"/>
<stop offset="1" stop-color="#006BE9"/>
</linearGradient>
</defs>
</svg>
