<svg width="14" height="14" viewBox="0 0 14 14" fill="none" xmlns="http://www.w3.org/2000/svg">
<path opacity="0.4" d="M12.5 0H1.5C1.10218 0 0.720644 0.158035 0.43934 0.43934C0.158035 0.720644 0 1.10218 0 1.5L0 12.5C0 12.8978 0.158035 13.2794 0.43934 13.5607C0.720644 13.842 1.10218 14 1.5 14H12.5C12.8978 14 13.2794 13.842 13.5607 13.5607C13.842 13.2794 14 12.8978 14 12.5V1.5C14 1.10218 13.842 0.720644 13.5607 0.43934C13.2794 0.158035 12.8978 0 12.5 0ZM11.675 7.4875L7.52812 11.6344C7.45871 11.7042 7.37618 11.7596 7.28528 11.7974C7.19438 11.8352 7.09689 11.8547 6.99844 11.8547C6.89998 11.8547 6.8025 11.8352 6.7116 11.7974C6.62069 11.7596 6.53816 11.7042 6.46875 11.6344L2.325 7.4875C2.25518 7.41809 2.19976 7.33556 2.16195 7.24465C2.12414 7.15375 2.10467 7.05627 2.10467 6.95781C2.10467 6.85936 2.12414 6.76188 2.16195 6.67097C2.19976 6.58007 2.25518 6.49754 2.325 6.42812L2.66563 6.08437C2.73629 6.01384 2.82033 5.95813 2.91281 5.92051C3.00529 5.88288 3.10436 5.8641 3.20419 5.86527C3.30403 5.86643 3.40262 5.88752 3.4942 5.92729C3.58578 5.96706 3.6685 6.02472 3.7375 6.09688L6 8.45625V2.75C5.99975 2.65144 6.01898 2.5538 6.05659 2.4627C6.09419 2.37159 6.14943 2.28881 6.21912 2.21912C6.28881 2.14943 6.37159 2.09419 6.4627 2.05659C6.5538 2.01898 6.65144 1.99975 6.75 2H7.25C7.34856 1.99975 7.4462 2.01898 7.5373 2.05659C7.62841 2.09419 7.71119 2.14943 7.78088 2.21912C7.85057 2.28881 7.90581 2.37159 7.94341 2.4627C7.98102 2.5538 8.00025 2.65144 8 2.75V8.45625L10.2625 6.09688C10.3315 6.02472 10.4142 5.96706 10.5058 5.92729C10.5974 5.88752 10.696 5.86643 10.7958 5.86527C10.8956 5.8641 10.9947 5.88288 11.0872 5.92051C11.1797 5.95813 11.2637 6.01384 11.3344 6.08437L11.675 6.42812C11.7448 6.49754 11.8002 6.58007 11.838 6.67097C11.8759 6.76188 11.8953 6.85936 11.8953 6.95781C11.8953 7.05627 11.8759 7.15375 11.838 7.24465C11.8002 7.33556 11.7448 7.41809 11.675 7.4875Z" fill="#FF6F6F"/>
<path d="M10.2625 6.09688C10.3315 6.02472 10.4142 5.96706 10.5058 5.92729C10.5973 5.88752 10.6959 5.86643 10.7958 5.86527C10.8956 5.8641 10.9947 5.88289 11.0872 5.92051C11.1796 5.95814 11.2637 6.01385 11.3343 6.08438L11.675 6.42813C11.7448 6.49754 11.8002 6.58007 11.838 6.67097C11.8758 6.76188 11.8953 6.85936 11.8953 6.95782C11.8953 7.05627 11.8758 7.15375 11.838 7.24466C11.8002 7.33556 11.7448 7.41809 11.675 7.4875L7.5281 11.6344C7.45869 11.7042 7.37616 11.7596 7.28525 11.7974C7.19435 11.8352 7.09686 11.8547 6.99841 11.8547C6.89995 11.8547 6.80247 11.8352 6.71157 11.7974C6.62066 11.7596 6.53813 11.7042 6.46872 11.6344L2.32497 7.4875C2.25515 7.41809 2.19973 7.33556 2.16192 7.24466C2.12411 7.15375 2.10464 7.05627 2.10464 6.95782C2.10464 6.85936 2.12411 6.76188 2.16192 6.67097C2.19973 6.58007 2.25515 6.49754 2.32497 6.42813L2.6656 6.08438C2.73626 6.01385 2.8203 5.95814 2.91278 5.92051C3.00526 5.88289 3.10433 5.8641 3.20416 5.86527C3.304 5.86643 3.40259 5.88752 3.49417 5.92729C3.58575 5.96706 3.66847 6.02472 3.73747 6.09688L5.99997 8.45625V2.75C5.99972 2.65144 6.01895 2.5538 6.05656 2.4627C6.09416 2.37159 6.1494 2.28881 6.21909 2.21912C6.28878 2.14943 6.37156 2.09419 6.46267 2.05659C6.55377 2.01899 6.65141 1.99976 6.74997 2H7.24997C7.34853 1.99976 7.44617 2.01899 7.53728 2.05659C7.62838 2.09419 7.71116 2.14943 7.78085 2.21912C7.85055 2.28881 7.90578 2.37159 7.94338 2.4627C7.98099 2.5538 8.00022 2.65144 7.99997 2.75V8.45625L10.2625 6.09688Z" fill="#FF6F6F"/>
</svg>
