<svg width="20" height="21" viewBox="0 0 20 21" fill="none" xmlns="http://www.w3.org/2000/svg">
<circle cx="10" cy="10.75" r="9" fill="url(#paint0_linear_41957_276614)" stroke="white" stroke-width="2"/>
<path fill-rule="evenodd" clip-rule="evenodd" d="M6.21209 6.96209C6.5782 6.59597 7.1718 6.59597 7.53791 6.96209L10 9.42417L12.4621 6.96209C12.8282 6.59597 13.4218 6.59597 13.7879 6.96209C14.154 7.3282 14.154 7.9218 13.7879 8.28791L11.3258 10.75L13.7879 13.2121C14.154 13.5782 14.154 14.1718 13.7879 14.5379C13.4218 14.904 12.8282 14.904 12.4621 14.5379L10 12.0758L7.53791 14.5379C7.1718 14.904 6.5782 14.904 6.21209 14.5379C5.84597 14.1718 5.84597 13.5782 6.21209 13.2121L8.67417 10.75L6.21209 8.28791C5.84597 7.9218 5.84597 7.3282 6.21209 6.96209Z" fill="white"/>
<defs>
<linearGradient id="paint0_linear_41957_276614" x1="10" y1="0.75" x2="10" y2="20.75" gradientUnits="userSpaceOnUse">
<stop stop-color="#F96363"/>
<stop offset="1" stop-color="#E13232"/>
</linearGradient>
</defs>
</svg>
