<svg width="24" height="24" viewBox="0 0 24 24" fill="none" xmlns="http://www.w3.org/2000/svg">
<path d="M11.5266 12.0047C11.2922 11.2547 11.2969 9.80625 11.4328 9.80625C11.8266 9.80625 11.7891 11.5359 11.5266 12.0047ZM11.4469 14.2172C11.0859 15.1641 10.6359 16.2469 10.1156 17.1562C10.9734 16.8281 11.9437 16.35 13.0641 16.1297C12.4688 15.6797 11.8969 15.0328 11.4469 14.2172ZM7.03594 20.0672C7.03594 20.1047 7.65469 19.8141 8.67188 18.1828C8.35781 18.4781 7.30781 19.3313 7.03594 20.0672ZM14.625 7.5H21V22.875C21 23.4984 20.4984 24 19.875 24H4.125C3.50156 24 3 23.4984 3 22.875V1.125C3 0.501562 3.50156 0 4.125 0H13.5V6.375C13.5 6.99375 14.0063 7.5 14.625 7.5ZM14.25 15.5531C13.3125 14.9812 12.6891 14.1938 12.2484 13.0312C12.4594 12.1641 12.7922 10.8469 12.5391 10.0219C12.3188 8.64375 10.5516 8.77969 10.2984 9.70312C10.0641 10.5609 10.2797 11.7703 10.6781 13.3125C10.1344 14.6062 9.33281 16.3406 8.76562 17.3344C8.76094 17.3344 8.76094 17.3391 8.75625 17.3391C7.48594 17.9906 5.30625 19.425 6.20156 20.5266C6.46406 20.85 6.95156 20.9953 7.20938 20.9953C8.04844 20.9953 8.88281 20.1516 10.0734 18.0984C11.2828 17.7 12.6094 17.2031 13.7766 17.0109C14.7937 17.5641 15.9844 17.925 16.7766 17.925C18.1453 17.925 18.2391 16.425 17.7 15.8906C17.0484 15.2531 15.1547 15.4359 14.25 15.5531ZM20.6719 4.92188L16.0781 0.328125C15.8672 0.117188 15.5813 0 15.2812 0H15V6H21V5.71406C21 5.41875 20.8828 5.13281 20.6719 4.92188ZM17.1984 16.8891C17.3906 16.7625 17.0813 16.3312 15.1922 16.4672C16.9313 17.2078 17.1984 16.8891 17.1984 16.8891Z" fill="#0061A7"/>
</svg>
