<svg width="50" height="50" viewBox="0 0 50 50" fill="none" xmlns="http://www.w3.org/2000/svg">
<rect width="50" height="50" rx="10" fill="#F4F7FB"/>
<g clip-path="url(#clip0_27750_107009)">
<path opacity="0.4" d="M16 25.075L23.6828 30.625C24.0654 30.9038 24.5266 31.0539 25 31.0539C25.4734 31.0539 25.9346 30.9038 26.3172 30.625L34 25.075V17.5C34 17.1022 33.842 16.7206 33.5607 16.4393C33.2794 16.158 32.8978 16 32.5 16H17.5C17.1022 16 16.7206 16.158 16.4393 16.4393C16.158 16.7206 16 17.1022 16 17.5V25.075ZM20.5 20.5C20.5 20.3011 20.579 20.1103 20.7197 19.9697C20.8603 19.829 21.0511 19.75 21.25 19.75H28.75C28.9489 19.75 29.1397 19.829 29.2803 19.9697C29.421 20.1103 29.5 20.3011 29.5 20.5V21.25C29.5 21.4489 29.421 21.6397 29.2803 21.7803C29.1397 21.921 28.9489 22 28.75 22H21.25C21.0511 22 20.8603 21.921 20.7197 21.7803C20.579 21.6397 20.5 21.4489 20.5 21.25V20.5ZM20.5 24.25C20.5 24.0511 20.579 23.8603 20.7197 23.7197C20.8603 23.579 21.0511 23.5 21.25 23.5H28.75C28.9489 23.5 29.1397 23.579 29.2803 23.7197C29.421 23.8603 29.5 24.0511 29.5 24.25V25C29.5 25.1989 29.421 25.3897 29.2803 25.5303C29.1397 25.671 28.9489 25.75 28.75 25.75H21.25C21.0511 25.75 20.8603 25.671 20.7197 25.5303C20.579 25.3897 20.5 25.1989 20.5 25V24.25Z" fill="#0061A7"/>
<path d="M29.5 20.5001C29.5 20.3012 29.421 20.1104 29.2803 19.9698C29.1397 19.8291 28.9489 19.7501 28.75 19.7501H21.25C21.0511 19.7501 20.8603 19.8291 20.7197 19.9698C20.579 20.1104 20.5 20.3012 20.5 20.5001V21.2501C20.5 21.449 20.579 21.6398 20.7197 21.7804C20.8603 21.9211 21.0511 22.0001 21.25 22.0001H28.75C28.9489 22.0001 29.1397 21.9211 29.2803 21.7804C29.421 21.6398 29.5 21.449 29.5 21.2501V20.5001ZM28.75 23.5001H21.25C21.0511 23.5001 20.8603 23.5791 20.7197 23.7198C20.579 23.8604 20.5 24.0512 20.5 24.2501V25.0001C20.5 25.199 20.579 25.3898 20.7197 25.5304C20.8603 25.6711 21.0511 25.7501 21.25 25.7501H28.75C28.9489 25.7501 29.1397 25.6711 29.2803 25.5304C29.421 25.3898 29.5 25.199 29.5 25.0001V24.2501C29.5 24.0512 29.421 23.8604 29.2803 23.7198C29.1397 23.5791 28.9489 23.5001 28.75 23.5001ZM28.4406 14.9407C27.6531 14.3689 26.0875 12.986 25 13.0001C23.9125 12.986 22.3469 14.3689 21.5594 14.9407L20.125 16.0001H29.875L28.4406 14.9407ZM16 19.047C14.8797 19.8767 13.9984 20.5282 13.8625 20.6407C13.5943 20.8508 13.3774 21.119 13.228 21.4251C13.0786 21.7312 13.0006 22.0673 13 22.4079V22.9095L16 25.0751V19.047ZM36.1375 20.6407C36.0016 20.5329 35.1203 19.8767 34 19.0517V25.0751L37 22.9095V22.4079C36.9994 22.0673 36.9214 21.7312 36.772 21.4251C36.6226 21.119 36.4057 20.8508 36.1375 20.6407ZM25 32.5517C24.2105 32.5515 23.4411 32.3022 22.8016 31.8392L13 24.761V34.7501C13 35.3468 13.2371 35.9191 13.659 36.3411C14.081 36.7631 14.6533 37.0001 15.25 37.0001H34.75C35.3467 37.0001 35.919 36.7631 36.341 36.3411C36.7629 35.9191 37 35.3468 37 34.7501V24.761L27.1984 31.8392C26.5589 32.3022 25.7895 32.5515 25 32.5517Z" fill="#0061A7"/>
</g>
<defs>
<clipPath id="clip0_27750_107009">
<rect width="24" height="24" fill="white" transform="translate(13 13)"/>
</clipPath>
</defs>
</svg>
