<svg width="51" height="40" viewBox="0 0 51 40" fill="none" xmlns="http://www.w3.org/2000/svg">
<path opacity="0.4" d="M50.2343 12.4679C50.405 12.6442 50.4998 12.8804 50.4984 13.1258C50.4969 13.3712 50.3993 13.6062 50.2265 13.7805L39.1869 24.7341C39.1003 24.8199 38.9976 24.8879 38.8847 24.9339C38.7718 24.98 38.6509 25.0034 38.529 25.0026C38.4071 25.0019 38.2865 24.9771 38.1741 24.9297C38.0618 24.8823 37.9599 24.8131 37.8743 24.7263L31.4912 18.2963C31.4054 18.2097 31.3375 18.107 31.2914 17.9941C31.2453 17.8812 31.2219 17.7603 31.2227 17.6384C31.2234 17.5164 31.2482 17.3959 31.2956 17.2835C31.343 17.1712 31.4122 17.0693 31.4991 16.9837L33.6945 14.8039C33.7811 14.7181 33.8838 14.6502 33.9966 14.6041C34.1095 14.558 34.2304 14.5347 34.3524 14.5354C34.4743 14.5361 34.5949 14.5609 34.7072 14.6083C34.8196 14.6557 34.9215 14.7249 35.007 14.8118L38.5619 18.39L46.7497 10.2647C46.8363 10.1788 46.939 10.1109 47.0519 10.0648C47.1648 10.0187 47.2857 9.99538 47.4076 9.99611C47.5296 9.99684 47.6502 10.0216 47.7625 10.0691C47.8749 10.1165 47.9767 10.1856 48.0623 10.2725L50.2343 12.4679Z" fill="white"/>
<path d="M18.0008 19.9999C19.9787 19.9999 21.9122 19.4134 23.5567 18.3145C25.2013 17.2157 26.4831 15.6538 27.24 13.8265C27.9969 11.9991 28.195 9.98839 27.8091 8.04849C27.4232 6.10859 26.4708 4.32668 25.0722 2.92809C23.6736 1.5295 21.8917 0.577053 19.9518 0.191184C18.0119 -0.194686 16.0011 0.00335644 14.1738 0.760267C12.3464 1.51718 10.7846 2.79896 9.68572 4.44353C8.58685 6.08809 8.00034 8.02158 8.00034 9.99948C8.00034 12.6518 9.05395 15.1954 10.9294 17.0709C12.8048 18.9463 15.3485 19.9999 18.0008 19.9999ZM25.0011 22.5H23.6964C21.9105 23.3236 19.9674 23.7501 18.0008 23.7501C16.0342 23.7501 14.091 23.3236 12.3052 22.5H11.0005C8.21576 22.5007 5.54529 23.6072 3.5762 25.5762C1.60712 27.5453 0.500621 30.2158 0.5 33.0005L0.5 36.2507C0.5 37.2453 0.895106 38.1991 1.5984 38.9024C2.30169 39.6057 3.25556 40.0008 4.25017 40.0008H31.7514C32.746 40.0008 33.6999 39.6057 34.4032 38.9024C35.1065 38.1991 35.5016 37.2453 35.5016 36.2507V33.0005C35.5009 30.2158 34.3945 27.5453 32.4254 25.5762C30.4563 23.6072 27.7858 22.5007 25.0011 22.5Z" fill="white"/>
</svg>
