<svg width="96" height="96" viewBox="0 0 96 96" fill="none" xmlns="http://www.w3.org/2000/svg">
<g clip-path="url(#clip0_114:166)">
<g filter="url(#filter0_d_114:166)">
<path d="M0 32.5629C0 28.3712 0 26.2754 0.946603 24.5066C1.89321 22.7379 3.63707 21.5753 7.1248 19.2501L24 8V72L6.2188 83.8541C3.48131 85.6791 2.11257 86.5916 1.05628 86.0263C0 85.461 0 83.816 0 80.5259V32.5629Z" fill="#75D171"/>
<path d="M72 24L89.7812 12.1459C92.5187 10.3209 93.8874 9.40838 94.9437 9.97369C96 10.539 96 12.184 96 15.4741V63.4371C96 67.6288 96 69.7246 95.0534 71.4934C94.1068 73.2621 92.3629 74.4247 88.8752 76.7499L72 88V24Z" fill="#75D171"/>
<path d="M24 8L72 24V88L24 72V8Z" fill="#75D171"/>
</g>
<path d="M44.5 63L24 72L72 88V43L44.5 63Z" fill="#5E9EFF"/>
<path d="M72 88V43L96 54V67.7185C96 70.3934 94.6632 72.8912 92.4376 74.3749L72 88Z" fill="#3879DB"/>
<path d="M13.5 15L6 20L24 38V25L13.5 15Z" fill="#FFA751"/>
<path d="M0 40V49.5L24 72V62L0 40Z" fill="#FFA751"/>
<path d="M44 52L24 25V38L37 56L24 62V72L44.5 63L72 43V31L44 52Z" fill="#FFCC9A"/>
<path d="M72 43V31.0001L96 43V54L72 43Z" fill="#FFA751"/>
<g filter="url(#filter1_d_114:166)">
<path fill-rule="evenodd" clip-rule="evenodd" d="M49.4531 46.3279C53.734 41.3074 66 26.2064 66 18C66 8.05887 57.9411 0 48 0C38.0589 0 30 8.05887 30 18C30 26.2064 42.266 41.3074 46.5469 46.3279C47.319 47.2334 48.681 47.2334 49.4531 46.3279ZM48 26C52.4183 26 56 22.4183 56 18C56 13.5817 52.4183 10 48 10C43.5817 10 40 13.5817 40 18C40 22.4183 43.5817 26 48 26Z" fill="#FF5555"/>
</g>
</g>
<defs>
<filter id="filter0_d_114:166" x="-8" y="6" width="112" height="96" filterUnits="userSpaceOnUse" color-interpolation-filters="sRGB">
<feFlood flood-opacity="0" result="BackgroundImageFix"/>
<feColorMatrix in="SourceAlpha" type="matrix" values="0 0 0 0 0 0 0 0 0 0 0 0 0 0 0 0 0 0 127 0" result="hardAlpha"/>
<feOffset dy="6"/>
<feGaussianBlur stdDeviation="4"/>
<feColorMatrix type="matrix" values="0 0 0 0 0.519028 0 0 0 0 0.736809 0 0 0 0 0.841667 0 0 0 0.2 0"/>
<feBlend mode="multiply" in2="BackgroundImageFix" result="effect1_dropShadow_114:166"/>
<feBlend mode="normal" in="SourceGraphic" in2="effect1_dropShadow_114:166" result="shape"/>
</filter>
<filter id="filter1_d_114:166" x="19" y="-1" width="58" height="69.007" filterUnits="userSpaceOnUse" color-interpolation-filters="sRGB">
<feFlood flood-opacity="0" result="BackgroundImageFix"/>
<feColorMatrix in="SourceAlpha" type="matrix" values="0 0 0 0 0 0 0 0 0 0 0 0 0 0 0 0 0 0 127 0" result="hardAlpha"/>
<feOffset dy="10"/>
<feGaussianBlur stdDeviation="5.5"/>
<feComposite in2="hardAlpha" operator="out"/>
<feColorMatrix type="matrix" values="0 0 0 0 1 0 0 0 0 0.333333 0 0 0 0 0.333333 0 0 0 0.4 0"/>
<feBlend mode="multiply" in2="BackgroundImageFix" result="effect1_dropShadow_114:166"/>
<feBlend mode="normal" in="SourceGraphic" in2="effect1_dropShadow_114:166" result="shape"/>
</filter>
<clipPath id="clip0_114:166">
<rect width="96" height="96" fill="white"/>
</clipPath>
</defs>
</svg>
