<svg width="160" height="59" viewBox="0 0 160 59" fill="none" xmlns="http://www.w3.org/2000/svg">
<g filter="url(#filter0_d_2966_221422)">
<path d="M8 12C8 6.47715 12.4772 2 18 2H142C147.523 2 152 6.47715 152 12V35C152 40.5228 147.523 45 142 45H18C12.4771 45 8 40.5228 8 35V12Z" fill="white"/>
<path d="M29.5 31H26.1667C25.7246 31 25.3007 30.8244 24.9882 30.5118C24.6756 30.1993 24.5 29.7754 24.5 29.3333V17.6667C24.5 17.2246 24.6756 16.8007 24.9882 16.4882C25.3007 16.1756 25.7246 16 26.1667 16H29.5M35.3333 27.6667L39.5 23.5M39.5 23.5L35.3333 19.3333M39.5 23.5H29.5" stroke="#0061A7" stroke-width="2" stroke-linecap="round" stroke-linejoin="round"/>
<path d="M50.2827 24.4937H53.1904L52.0991 20.9561C52.0649 20.8486 52.0186 20.6753 51.96 20.436C51.9014 20.1968 51.8257 19.8892 51.7329 19.5132C51.6694 19.7769 51.606 20.0283 51.5425 20.2676C51.4839 20.5068 51.4229 20.7363 51.3594 20.9561L50.2827 24.4937ZM46.1885 28.5L49.8872 17.7773H53.5493L57.2554 28.5H54.3477L53.8057 26.5811H49.6528L49.0962 28.5H46.1885ZM58.5696 28.5V17.1475H61.1331V24.3325L63.8211 21.1025H67.0584L63.7332 24.6621L67.3587 28.5H63.9236L61.1331 25.2114V28.5H58.5696ZM68.629 28.5V17.1475H71.1925V21.1318C71.1925 21.3955 71.1852 21.6396 71.1705 21.8643C71.1559 22.0889 71.1339 22.2915 71.1046 22.4722C71.4317 21.9204 71.8175 21.5151 72.2618 21.2563C72.7062 20.9976 73.2359 20.8682 73.8512 20.8682C74.3297 20.8682 74.7545 20.9463 75.1256 21.1025C75.5016 21.2539 75.8067 21.4736 76.0411 21.7617C76.2364 22.0107 76.3756 22.3135 76.4586 22.6699C76.5416 23.0264 76.5831 23.5586 76.5831 24.2666V28.5H73.9684V24.5376C73.9684 23.9468 73.8707 23.5171 73.6754 23.2485C73.485 22.98 73.1773 22.8457 72.7525 22.8457C72.2105 22.8457 71.815 23.0459 71.566 23.4463C71.317 23.8467 71.1925 24.4961 71.1925 25.3945V28.5H68.629ZM78.8202 18.7954C78.8202 18.3999 78.9594 18.063 79.2377 17.7847C79.5209 17.5063 79.8603 17.3672 80.2558 17.3672C80.6659 17.3672 81.0077 17.5039 81.2812 17.7773C81.5595 18.0508 81.6986 18.3901 81.6986 18.7954C81.6986 19.2007 81.557 19.5449 81.2738 19.8281C80.9955 20.1113 80.6562 20.2529 80.2558 20.2529C79.8651 20.2529 79.5282 20.1089 79.245 19.8208C78.9618 19.5327 78.8202 19.1909 78.8202 18.7954ZM78.9521 28.5V21.1025H81.5668V28.5H78.9521ZM84.031 28.5V21.1025H86.4919V22.8457C86.7458 22.2109 87.0925 21.7349 87.5319 21.4175C87.9714 21.1001 88.5036 20.9414 89.1286 20.9414C89.2312 20.9414 89.3337 20.9463 89.4362 20.9561C89.5437 20.9609 89.6511 20.9707 89.7585 20.9854L89.5095 23.3584C89.3532 23.3047 89.1994 23.2656 89.048 23.2412C88.8967 23.2168 88.7502 23.2046 88.6086 23.2046C87.9738 23.2046 87.4831 23.3999 87.1364 23.7905C86.7946 24.1763 86.6237 24.7256 86.6237 25.4385V28.5H84.031ZM91.1167 18.7954C91.1167 18.3999 91.2559 18.063 91.5342 17.7847C91.8174 17.5063 92.1567 17.3672 92.5522 17.3672C92.9624 17.3672 93.3042 17.5039 93.5776 17.7773C93.856 18.0508 93.9951 18.3901 93.9951 18.7954C93.9951 19.2007 93.8535 19.5449 93.5703 19.8281C93.292 20.1113 92.9526 20.2529 92.5522 20.2529C92.1616 20.2529 91.8247 20.1089 91.5415 19.8208C91.2583 19.5327 91.1167 19.1909 91.1167 18.7954ZM91.2485 28.5V21.1025H93.8633V28.5H91.2485ZM102.124 25.0356C102.559 25.5288 102.986 25.8975 103.406 26.1416C103.831 26.3857 104.253 26.5078 104.673 26.5078C105.064 26.5078 105.383 26.4028 105.632 26.1929C105.886 25.9829 106.013 25.7168 106.013 25.3945C106.013 25.0381 105.903 24.7646 105.684 24.5742C105.469 24.3789 104.978 24.1787 104.212 23.9736C103.162 23.6904 102.42 23.3218 101.985 22.8677C101.55 22.4136 101.333 21.791 101.333 21C101.333 19.9746 101.675 19.1396 102.358 18.4951C103.047 17.8457 103.938 17.521 105.032 17.521C105.623 17.521 106.182 17.6016 106.709 17.7627C107.241 17.9189 107.744 18.1582 108.218 18.4805L107.302 20.5825C106.97 20.2993 106.629 20.0869 106.277 19.9453C105.93 19.7988 105.586 19.7256 105.244 19.7256C104.893 19.7256 104.607 19.811 104.387 19.9819C104.168 20.1479 104.058 20.3628 104.058 20.6265C104.058 20.895 104.153 21.1099 104.343 21.271C104.539 21.4321 104.912 21.5859 105.464 21.7324C105.498 21.7422 105.542 21.7544 105.596 21.769C106.787 22.0913 107.571 22.4453 107.947 22.8311C108.201 23.0947 108.394 23.4121 108.525 23.7832C108.657 24.1494 108.723 24.5571 108.723 25.0063C108.723 26.144 108.35 27.0596 107.603 27.7529C106.856 28.4414 105.859 28.7856 104.614 28.7856C103.867 28.7856 103.186 28.6587 102.571 28.4048C101.961 28.1509 101.372 27.7529 100.806 27.2109L102.124 25.0356ZM115.728 23.8491C115.68 23.4292 115.518 23.0923 115.245 22.8384C114.976 22.5845 114.644 22.4575 114.249 22.4575C113.824 22.4575 113.485 22.5747 113.231 22.8091C112.982 23.0386 112.816 23.3853 112.733 23.8491H115.728ZM118.299 25.3213H112.674C112.679 25.8926 112.826 26.3345 113.114 26.647C113.402 26.9546 113.809 27.1084 114.337 27.1084C114.732 27.1084 115.064 27.0352 115.333 26.8887C115.606 26.7373 115.814 26.5151 115.955 26.2222L117.918 27.0132C117.684 27.5796 117.269 28.0166 116.673 28.3242C116.078 28.6318 115.348 28.7856 114.483 28.7856C113.194 28.7856 112.159 28.4292 111.378 27.7163C110.601 26.9985 110.213 26.0537 110.213 24.8818C110.213 23.7295 110.601 22.7725 111.378 22.0107C112.159 21.249 113.145 20.8682 114.337 20.8682C115.562 20.8682 116.529 21.2539 117.237 22.0254C117.945 22.7969 118.299 23.854 118.299 25.1968V25.3213ZM119.562 27.8848L120.104 25.8926C120.485 26.2246 120.903 26.481 121.357 26.6616C121.816 26.8374 122.277 26.9253 122.741 26.9253C123.068 26.9253 123.317 26.874 123.488 26.7715C123.659 26.6641 123.744 26.5103 123.744 26.3101C123.744 25.9829 123.4 25.7388 122.712 25.5776C122.487 25.5239 122.306 25.4775 122.17 25.4385C121.388 25.2236 120.82 24.9429 120.463 24.5962C120.112 24.2446 119.936 23.7905 119.936 23.2339C119.936 22.5161 120.204 21.9424 120.741 21.5127C121.283 21.083 122.016 20.8682 122.939 20.8682C123.412 20.8682 123.893 20.9243 124.382 21.0366C124.875 21.144 125.378 21.3125 125.89 21.542L125.348 23.3364C125.002 23.1021 124.65 22.9238 124.294 22.8018C123.937 22.6797 123.581 22.6187 123.224 22.6187C122.926 22.6187 122.702 22.665 122.55 22.7578C122.399 22.8506 122.323 22.9849 122.323 23.1606C122.323 23.4243 122.665 23.6465 123.349 23.8271C123.505 23.8711 123.622 23.9028 123.7 23.9224C124.604 24.1812 125.231 24.4863 125.583 24.8379C125.939 25.1846 126.117 25.6558 126.117 26.2515C126.117 27.0083 125.827 27.6211 125.246 28.0898C124.665 28.5537 123.896 28.7856 122.939 28.7856C122.289 28.7856 121.686 28.71 121.13 28.5586C120.573 28.4121 120.05 28.1875 119.562 27.8848ZM127.908 18.7954C127.908 18.3999 128.047 18.063 128.325 17.7847C128.608 17.5063 128.948 17.3672 129.343 17.3672C129.753 17.3672 130.095 17.5039 130.369 17.7773C130.647 18.0508 130.786 18.3901 130.786 18.7954C130.786 19.2007 130.645 19.5449 130.361 19.8281C130.083 20.1113 129.744 20.2529 129.343 20.2529C128.953 20.2529 128.616 20.1089 128.333 19.8208C128.049 19.5327 127.908 19.1909 127.908 18.7954ZM128.04 28.5V21.1025H130.654V28.5H128.04Z" fill="#0061A7"/>
<path d="M18 3H142V1H18V3ZM151 12V35H153V12H151ZM142 44H18V46H142V44ZM9 35V12H7V35H9ZM18 44C13.0294 44 9 39.9706 9 35H7C7 41.0751 11.9249 46 18 46V44ZM151 35C151 39.9706 146.971 44 142 44V46C148.075 46 153 41.0751 153 35H151ZM142 3C146.971 3 151 7.02944 151 12H153C153 5.92487 148.075 1 142 1V3ZM18 1C11.9249 1 7 5.92487 7 12H9C9 7.02944 13.0294 3 18 3V1Z" fill="#0061A7"/>
</g>
<defs>
<filter id="filter0_d_2966_221422" x="0" y="0" width="160" height="59" filterUnits="userSpaceOnUse" color-interpolation-filters="sRGB">
<feFlood flood-opacity="0" result="BackgroundImageFix"/>
<feColorMatrix in="SourceAlpha" type="matrix" values="0 0 0 0 0 0 0 0 0 0 0 0 0 0 0 0 0 0 127 0" result="hardAlpha"/>
<feMorphology radius="2" operator="dilate" in="SourceAlpha" result="effect1_dropShadow_2966_221422"/>
<feOffset dy="6"/>
<feGaussianBlur stdDeviation="3"/>
<feColorMatrix type="matrix" values="0 0 0 0 0.469562 0 0 0 0 0.748229 0 0 0 0 0.997733 0 0 0 0.12 0"/>
<feBlend mode="multiply" in2="BackgroundImageFix" result="effect1_dropShadow_2966_221422"/>
<feBlend mode="normal" in="SourceGraphic" in2="effect1_dropShadow_2966_221422" result="shape"/>
</filter>
</defs>
</svg>
