<svg width="24" height="6" viewBox="0 0 24 6" fill="none" xmlns="http://www.w3.org/2000/svg">
<path d="M14.5263 2.99995C14.5263 4.39732 13.3974 5.52626 12 5.52626C10.6026 5.52626 9.47368 4.39732 9.47368 2.99995C9.47368 1.60258 10.6026 0.473633 12 0.473633C13.3974 0.473633 14.5263 1.60258 14.5263 2.99995ZM21.4737 0.473633C20.0763 0.473633 18.9474 1.60258 18.9474 2.99995C18.9474 4.39732 20.0763 5.52626 21.4737 5.52626C22.8711 5.52626 24 4.39732 24 2.99995C24 1.60258 22.8711 0.473633 21.4737 0.473633ZM2.52632 0.473633C1.12895 0.473633 0 1.60258 0 2.99995C0 4.39732 1.12895 5.52626 2.52632 5.52626C3.92368 5.52626 5.05263 4.39732 5.05263 2.99995C5.05263 1.60258 3.92368 0.473633 2.52632 0.473633Z" fill="#0061A7"/>
</svg>
