<svg width="160" height="160" viewBox="0 0 160 160" fill="none" xmlns="http://www.w3.org/2000/svg">
<g clip-path="url(#clip0_17916_21676)">
<rect width="160" height="160" fill="white"/>
<g style="mix-blend-mode:multiply" filter="url(#filter0_f_17916_21676)">
<path d="M56.25 68.75C56.25 59.3219 56.25 54.6079 59.1789 51.6789C62.1079 48.75 66.8219 48.75 76.25 48.75H83.75C93.1781 48.75 97.8921 48.75 100.821 51.6789C103.75 54.6079 103.75 59.3219 103.75 68.75V123.75C103.75 133.178 103.75 137.892 100.821 140.821C97.8921 143.75 93.1781 143.75 83.75 143.75H76.25C66.8219 143.75 62.1079 143.75 59.1789 140.821C56.25 137.892 56.25 133.178 56.25 123.75V68.75Z" fill="#B3CAF4" fill-opacity="0.62"/>
</g>
<g filter="url(#filter1_di_17916_21676)">
<path d="M50 40C50 30.5719 50 25.8579 52.9289 22.9289C55.8579 20 60.5719 20 70 20H90C99.4281 20 104.142 20 107.071 22.9289C110 25.8579 110 30.5719 110 40V120C110 129.428 110 134.142 107.071 137.071C104.142 140 99.4281 140 90 140H70C60.5719 140 55.8579 140 52.9289 137.071C50 134.142 50 129.428 50 120V40Z" fill="#5A5A5A"/>
</g>
<path fill-rule="evenodd" clip-rule="evenodd" d="M54.6967 24.6968C52.5 26.8935 52.5 30.4291 52.5 37.5001V122.5C52.5 129.571 52.5 133.107 54.6967 135.303C56.8934 137.5 60.4289 137.5 67.5 137.5H92.5C99.5711 137.5 103.107 137.5 105.303 135.303C107.5 133.107 107.5 129.571 107.5 122.5V37.5001C107.5 30.4291 107.5 26.8935 105.303 24.6968C103.7 23.0936 101.384 22.6605 97.5 22.5435V25.0001C97.5 27.0712 95.8211 28.7501 93.75 28.7501H66.25C64.1789 28.7501 62.5 27.0712 62.5 25.0001V22.5435C58.6164 22.6605 56.3 23.0936 54.6967 24.6968Z" fill="url(#paint0_radial_17916_21676)"/>
<path fill-rule="evenodd" clip-rule="evenodd" d="M53.394 29.3539C53.1263 31.3449 53.125 33.9469 53.125 37.5001V122.5C53.125 126.053 53.1263 128.655 53.394 130.646C53.6593 132.619 54.1758 133.899 55.1386 134.861C56.1015 135.824 57.3807 136.341 59.3537 136.606C61.3448 136.874 63.9468 136.875 67.5 136.875H92.5C96.0532 136.875 98.6552 136.874 100.646 136.606C102.619 136.341 103.898 135.824 104.861 134.861C105.824 133.899 106.341 132.619 106.606 130.646C106.874 128.655 106.875 126.053 106.875 122.5V37.5001C106.875 33.9469 106.874 31.3449 106.606 29.3539C106.341 27.3808 105.824 26.1017 104.861 25.1388C103.53 23.8077 101.607 23.3386 98.125 23.1913V25.0001C98.125 27.4164 96.1662 29.3751 93.75 29.3751H66.25C63.8338 29.3751 61.875 27.4164 61.875 25.0001V23.1913C58.3929 23.3386 56.4698 23.8077 55.1386 25.1388C54.1758 26.1017 53.6593 27.3808 53.394 29.3539ZM61.875 22.5657C58.3644 22.7115 56.212 23.1815 54.6967 24.6968C52.5 26.8935 52.5 30.4291 52.5 37.5001V122.5C52.5 129.571 52.5 133.107 54.6967 135.303C56.8934 137.5 60.4289 137.5 67.5 137.5H92.5C99.5711 137.5 103.107 137.5 105.303 135.303C107.5 133.107 107.5 129.571 107.5 122.5V37.5001C107.5 30.4291 107.5 26.8935 105.303 24.6968C103.788 23.1815 101.636 22.7115 98.125 22.5657C97.9213 22.5572 97.713 22.5499 97.5 22.5435V25.0001C97.5 27.0712 95.8211 28.7501 93.75 28.7501H66.25C64.1789 28.7501 62.5 27.0712 62.5 25.0001V22.5435C62.287 22.5499 62.0787 22.5572 61.875 22.5657Z" fill="#889BFF"/>
<path d="M60 77.8025C60 76.6633 60.5178 75.5859 61.4074 74.8743L76.8765 62.499C78.7026 61.0381 81.2974 61.0381 83.1235 62.499L98.5926 74.8743C99.4822 75.5859 100 76.6634 100 77.8025V95.0002C100 97.7616 97.7614 100 95 100H65C62.2386 100 60 97.7616 60 95.0002V77.8025Z" fill="url(#paint1_radial_17916_21676)"/>
<path d="M63.75 67.5C63.75 66.1193 64.7535 65 65.9914 65H94.0086C95.2465 65 96.25 66.1193 96.25 67.5V92.5C96.25 93.8807 95.2465 95 94.0086 95H65.9914C64.7535 95 63.75 93.8807 63.75 92.5V67.5Z" fill="white" fill-opacity="0.8"/>
<path d="M60 77.2554C60 76.2736 61.0799 75.6751 61.9125 76.1954L80 87.5001L98.0875 76.1954C98.9201 75.6751 100 76.2736 100 77.2554V95.0001C100 97.7615 97.7614 100 95 100H65C62.2386 100 60 97.7615 60 95.0001V77.2554Z" fill="url(#paint2_radial_17916_21676)"/>
<g opacity="0.6" filter="url(#filter2_b_17916_21676)">
<path d="M78.5005 86.125C79.3894 85.4583 80.6116 85.4583 81.5005 86.125L97.0005 97.75C97.9615 98.4708 97.4517 100 96.2505 100H63.7505C62.5492 100 62.0395 98.4708 63.0005 97.75L78.5005 86.125Z" fill="#FFB950"/>
</g>
<ellipse cx="95" cy="65" rx="5" ry="5.00001" fill="url(#paint3_radial_17916_21676)"/>
<g filter="url(#filter3_d_17916_21676)">
<circle cx="120" cy="40" r="20" fill="url(#paint4_linear_17916_21676)"/>
<circle cx="120" cy="40" r="18.5" stroke="white" stroke-width="3"/>
</g>
<path fill-rule="evenodd" clip-rule="evenodd" d="M128.891 33.7425C129.585 34.5106 129.526 35.6963 128.758 36.3908L117.698 46.3908C117.312 46.7391 116.8 46.912 116.283 46.8684C115.765 46.8247 115.289 46.5684 114.967 46.1605L111.027 41.1605C110.386 40.3472 110.526 39.1682 111.34 38.5273C112.153 37.8864 113.332 38.0262 113.973 38.8395L116.671 42.2635L126.243 33.6092C127.011 32.9147 128.196 32.9744 128.891 33.7425Z" fill="white"/>
</g>
<defs>
<filter id="filter0_f_17916_21676" x="36.25" y="28.75" width="87.5" height="135" filterUnits="userSpaceOnUse" color-interpolation-filters="sRGB">
<feFlood flood-opacity="0" result="BackgroundImageFix"/>
<feBlend mode="normal" in="SourceGraphic" in2="BackgroundImageFix" result="shape"/>
<feGaussianBlur stdDeviation="10" result="effect1_foregroundBlur_17916_21676"/>
</filter>
<filter id="filter1_di_17916_21676" x="42" y="16" width="76" height="136" filterUnits="userSpaceOnUse" color-interpolation-filters="sRGB">
<feFlood flood-opacity="0" result="BackgroundImageFix"/>
<feColorMatrix in="SourceAlpha" type="matrix" values="0 0 0 0 0 0 0 0 0 0 0 0 0 0 0 0 0 0 127 0" result="hardAlpha"/>
<feOffset dy="4"/>
<feGaussianBlur stdDeviation="4"/>
<feColorMatrix type="matrix" values="0 0 0 0 0.702778 0 0 0 0 0.794046 0 0 0 0 0.958333 0 0 0 0.18 0"/>
<feBlend mode="multiply" in2="BackgroundImageFix" result="effect1_dropShadow_17916_21676"/>
<feBlend mode="normal" in="SourceGraphic" in2="effect1_dropShadow_17916_21676" result="shape"/>
<feColorMatrix in="SourceAlpha" type="matrix" values="0 0 0 0 0 0 0 0 0 0 0 0 0 0 0 0 0 0 127 0" result="hardAlpha"/>
<feOffset/>
<feGaussianBlur stdDeviation="5.35647"/>
<feComposite in2="hardAlpha" operator="arithmetic" k2="-1" k3="1"/>
<feColorMatrix type="matrix" values="0 0 0 0 0.285781 0 0 0 0 0.320366 0 0 0 0 0.3875 0 0 0 0.04 0"/>
<feBlend mode="normal" in2="shape" result="effect2_innerShadow_17916_21676"/>
</filter>
<filter id="filter2_b_17916_21676" x="42.498" y="65.625" width="75.0039" height="54.375" filterUnits="userSpaceOnUse" color-interpolation-filters="sRGB">
<feFlood flood-opacity="0" result="BackgroundImageFix"/>
<feGaussianBlur in="BackgroundImage" stdDeviation="10"/>
<feComposite in2="SourceAlpha" operator="in" result="effect1_backgroundBlur_17916_21676"/>
<feBlend mode="normal" in="SourceGraphic" in2="effect1_backgroundBlur_17916_21676" result="shape"/>
</filter>
<filter id="filter3_d_17916_21676" x="94" y="20" width="52" height="52" filterUnits="userSpaceOnUse" color-interpolation-filters="sRGB">
<feFlood flood-opacity="0" result="BackgroundImageFix"/>
<feColorMatrix in="SourceAlpha" type="matrix" values="0 0 0 0 0 0 0 0 0 0 0 0 0 0 0 0 0 0 127 0" result="hardAlpha"/>
<feOffset dy="6"/>
<feGaussianBlur stdDeviation="3"/>
<feComposite in2="hardAlpha" operator="out"/>
<feColorMatrix type="matrix" values="0 0 0 0 0.356863 0 0 0 0 0.870588 0 0 0 0 0.470588 0 0 0 0.16 0"/>
<feBlend mode="multiply" in2="BackgroundImageFix" result="effect1_dropShadow_17916_21676"/>
<feBlend mode="normal" in="SourceGraphic" in2="effect1_dropShadow_17916_21676" result="shape"/>
</filter>
<radialGradient id="paint0_radial_17916_21676" cx="0" cy="0" r="1" gradientUnits="userSpaceOnUse" gradientTransform="translate(80 31.6755) rotate(90) scale(105.825 100.324)">
<stop stop-color="#ACB9FF"/>
<stop offset="1" stop-color="#7C91FF"/>
</radialGradient>
<radialGradient id="paint1_radial_17916_21676" cx="0" cy="0" r="1" gradientUnits="userSpaceOnUse" gradientTransform="translate(80 62.0002) rotate(90) scale(38)">
<stop stop-color="#FFCB9B"/>
<stop offset="1" stop-color="#FFAD61"/>
</radialGradient>
<radialGradient id="paint2_radial_17916_21676" cx="0" cy="0" r="1" gradientUnits="userSpaceOnUse" gradientTransform="translate(80 75.0001) rotate(90) scale(32.2917 31)">
<stop stop-color="#FFDF8C"/>
<stop offset="1" stop-color="#FFCE50"/>
</radialGradient>
<radialGradient id="paint3_radial_17916_21676" cx="0" cy="0" r="1" gradientUnits="userSpaceOnUse" gradientTransform="translate(96.25 64.1667) rotate(102.095) scale(5.96576)">
<stop stop-color="#FFBFBF"/>
<stop offset="1" stop-color="#FF7070"/>
</radialGradient>
<linearGradient id="paint4_linear_17916_21676" x1="120" y1="20" x2="120" y2="60" gradientUnits="userSpaceOnUse">
<stop stop-color="#63F984"/>
<stop offset="1" stop-color="#5ADA76"/>
</linearGradient>
<clipPath id="clip0_17916_21676">
<rect width="160" height="160" fill="white"/>
</clipPath>
</defs>
</svg>
