<svg width="14" height="14" viewBox="0 0 14 14" fill="none" xmlns="http://www.w3.org/2000/svg">
<path opacity="0.4" d="M7 0C3.13306 0 0 3.13306 0 7C0 10.8669 3.13306 14 7 14C10.8669 14 14 10.8669 14 7C14 3.13306 10.8669 0 7 0ZM10.4323 8.8375C10.4638 8.86897 10.4889 8.90636 10.506 8.94753C10.5231 8.9887 10.5319 9.03284 10.5319 9.07742C10.5319 9.122 10.5231 9.16614 10.506 9.20731C10.4889 9.24848 10.4638 9.28587 10.4323 9.31734L9.31452 10.4323C9.28305 10.4638 9.24566 10.4889 9.20449 10.506C9.16332 10.5231 9.11918 10.5319 9.0746 10.5319C9.03002 10.5319 8.98588 10.5231 8.94471 10.506C8.90353 10.4889 8.86614 10.4638 8.83468 10.4323L7 8.58064L5.1625 10.4323C5.13103 10.4638 5.09364 10.4889 5.05247 10.506C5.0113 10.5231 4.96716 10.5319 4.92258 10.5319C4.878 10.5319 4.83386 10.5231 4.79269 10.506C4.75152 10.4889 4.71413 10.4638 4.68266 10.4323L3.56774 9.31452C3.53616 9.28305 3.51111 9.24566 3.49402 9.20449C3.47692 9.16332 3.46812 9.11918 3.46812 9.0746C3.46812 9.03002 3.47692 8.98588 3.49402 8.94471C3.51111 8.90353 3.53616 8.86614 3.56774 8.83468L5.41935 7L3.56774 5.1625C3.53616 5.13103 3.51111 5.09364 3.49402 5.05247C3.47692 5.0113 3.46812 4.96716 3.46812 4.92258C3.46812 4.878 3.47692 4.83386 3.49402 4.79269C3.51111 4.75152 3.53616 4.71413 3.56774 4.68266L4.68548 3.56492C4.71695 3.53334 4.75434 3.50829 4.79551 3.49119C4.83668 3.4741 4.88082 3.4653 4.9254 3.4653C4.96998 3.4653 5.01412 3.4741 5.05529 3.49119C5.09646 3.50829 5.13386 3.53334 5.16532 3.56492L7 5.41935L8.8375 3.56774C8.86897 3.53616 8.90636 3.51111 8.94753 3.49402C8.9887 3.47692 9.03284 3.46812 9.07742 3.46812C9.122 3.46812 9.16614 3.47692 9.20731 3.49402C9.24848 3.51111 9.28587 3.53616 9.31734 3.56774L10.4351 4.68548C10.4667 4.71695 10.4917 4.75434 10.5088 4.79551C10.5259 4.83668 10.5347 4.88082 10.5347 4.9254C10.5347 4.96998 10.5259 5.01412 10.5088 5.05529C10.4917 5.09646 10.4667 5.13386 10.4351 5.16532L8.58064 7L10.4323 8.8375Z" fill="#7B87AF"/>
</svg>
